{
  "Name": "GetLinkedin",
  "CreationDate": "2019-7-5",
  "Commands": [
    {
      "Command": "executeScript",
      "Target": "return ($el = document.querySelector(\"a[href^='https://www.linkedin.com/']\"), !$el ? null : $el.href)",
      "Value": "linkedinUrl"
    },
    {
      "Command": "echo",
      "Target": "GetLinkedin: ${linkedinUrl}",
      "Value": "green"
    }
  ]
}