{
  "Name": "GetTwitter",
  "CreationDate": "2019-7-8",
  "Commands": [
    {
      "Command": "executeScript",
      "Target": "return ($el = document.querySelector(\"a[href^='https://twitter.com/']\"), !$el ? null : $el.href)",
      "Value": "twitterUrl"
    },
    {
      "Command": "echo",
      "Target": "GetTwitter: ${twitterUrl}",
      "Value": "green"
    }
  ]
}