{
  "Name": "GetInstagram",
  "CreationDate": "2019-7-8",
  "Commands": [
    {
      "Command": "executeScript",
      "Target": "return ($el = document.querySelector(\"a[href^='https://www.instagram.com/']\"), !$el ? null : $el.href)",
      "Value": "instagramUrl"
    },
    {
      "Command": "echo",
      "Target": "GetInstagram: ${instagramUrl}",
      "Value": "green"
    }
  ]
}