{
  "Name": "FetchEmailsTwoByTwo",
  "CreationDate": "2020-5-17",
  "Commands": [
    {
      "Command": "executeScript_Sandbox",
      "Target": "return 'fetchEmailsForTwoDomains'",
      "Value": "properGasRoute"
    },
    {
      "Command": "executeScript_Sandbox",
      "Target": "return {}",
      "Value": "dataToSubmit"
    },
    {
      "Command": "executeScript_Sandbox",
      "Target": "window.ignorePostResult = true",
      "Value": ""
    },
    {
      "Command": "comment",
      "Target": "store // true",
      "Value": "!errorignore"
    },
    {
      "Command": "run",
      "Target": "./PostToProperGAS",
      "Value": ""
    },
    {
      "Command": "comment",
      "Target": "store // false",
      "Value": "!errorignore"
    }
  ]
}