{
  "Name": "TestPost",
  "CreationDate": "2019-7-8",
  "Commands": [
    {
      "Command": "executeScript_Sandbox",
      "Target": "return 'https://script.google.com/macros/s/AKfycbxvWX3viju8JidWumh8wd7KX0bfMYZm8a_ol6tNucuZj552cok/exec'",
      "Value": "requestUrl"
    },
    {
      "Command": "executeScript_Sandbox",
      "Target": "return { route: 'add_companies', data: [[0, 1, 2]] }",
      "Value": "postData"
    },
    {
      "Command": "run",
      "Target": "./Post",
      "Value": ""
    }
  ]
}