{
  "Name": "UpdateEmailForOldCompany",
  "CreationDate": "2020-5-20",
  "Commands": [
    {
      "Command": "executeScript_Sandbox",
      "Target": "return 'updateEmailForOldCompany'",
      "Value": "properGasRoute"
    },
    {
      "Command": "run",
      "Target": "./PostToProperGAS",
      "Value": ""
    }
  ]
}