{
  "Name": "GetFacebook",
  "CreationDate": "2019-7-5",
  "Commands": [
    {
      "Command": "executeScript",
      "Target": "return ($el = document.querySelector(\"a[href^='https://www.facebook.com/']\"), !$el ? null : $el.href)",
      "Value": "facebookUrl"
    },
    {
      "Command": "echo",
      "Target": "GetFacebook: ${facebookUrl}",
      "Value": "green"
    }
  ]
}